5-card hands
==================================================================
royal flush : 4
straight flush : 36 = 9 * 4
four-of-a-kind : 624 = 13 (quads) * 48 (kickers)
full house : 3,744 = (13 * 4) * (12 * 6)
flush : 5,108 = 4 * (13 * 12 * 11 * 10 * 9) / (5 * 4 * 3 * 2 * 1) - 10 * 4
straight : 10,200 = 10 * (4 * 4 * 4 * 4 * 4 - 4)
three-of-a-kind : 54,912 = (13 * 4) * (48 * 44 / 2)
two pair : 123,552 = (13 * 6) * (12 * 6) * 44 / 2
one pair : 1,098,240 = (13 * 6) * (48 * 44 * 40 / 6)
high card : 1,302,540 = (52 * 48 * 44 * 40 * 36 / 5 * 4 * 3 * 2 * 1) - 5108 - 10,200 - 40

total count : 2,598,960 = (52 * 51 * 50 * 49 * 48) / (5 * 4 * 3 * 2 * 1)
==================================================================



7-card hands
==================================================================
royal flush : 4,324 = 4 * 47 * 46 / 2
straight flush : 33,120 = 8 * 4 * 46 * 45 / 2
5-high straight flush : 4,140 = 4 * 46 * 45 / 2
four-of-a-kind : 224,848 = 13 * 48 * 47 * 46 / (3 * 2 * 1)
full house : 3,473,184 = (13 * 12 / 2) * 4 * 4 * 44
                       + 13 * 4 * (12 * 11 / 2) * (4 * 3 / 2) * (4 * 3 / 2)
                       + 13 * 4 * 12 * (4 * 3 / 2) * (11 * 10 / 2) * 4 * 4
flush : 4,047,644 = 4 * (13 * 12 * 11 * 10 * 9 / (5 * 4 * 3 * 2 * 1)) * (39 * 38 / 2)
                  + 4 * (13 * 12 * 11 * 10 * 9 * 8 / (6 * 5 * 4 * 3 * 2 * 1)) * 39
                  + 4 * 13 * 12 * 11 * 10 * 9 * 8 * 7 / (7 * 6 * 5 * 4 * 3 * 2 * 1)
                  - 4,324 - 33,120 - 4,140
                  = 3,814,668 + 267,696 + 6,864 - 4,324 - 33,120 - 4,140
7 distinct card ranks : ((8*7/2) + (9/1)*(7*6/2))
        * ((4^7) - 4 - 4*7*3 - 4*(7*6/2)*(3)^2) = 217*15540 = 3,372,180
6 distinct card ranks : (8 + 9*7)*(6*(4*3/2))*(4^5 - (4+5*2*3))
(5-card straight+pair)  = 71*36*(1024-34) = 2,530,440
5 distinct card ranks :  10*(5*4)*(4^4-3) = 50,600
(5-card straight+triple)
5 distinct card ranks : 10*(5*4/2)*[6*(64-2)+24*(64-1)+6*64]
(5-card straight+2pairs) = 10*10*2,268 = 226,800
straight :  = 3,372,180 + 2,530,440 + 50,600 + 226,800 = 6,180,020
three-of-a-kind : [(13*12*11*10*9/(5*4*3*2)) - 10]*(5*4)(4^4-3) = 6,461,620
two pair : (13*12*11*10/4*3*2*1)*4*(4*3/2)^3*4
           + (13*12*11*10*9/5*4*3*2*1 - 10)*(5*4/2)*[6*(64-2)+24*(64-1)+6*64]
          = 2,471,040 + 28,962,360 = 31,433,400
one pair : ((13*12*11*10*9*8/6*5*4*3*2*1-9-2*7-8*6)*6*(4*3/2)*(4^5 - (4+5*2*3))
          = 58,627,800
high card : (13*12*11*10*9*8/6*5*4*3*2*1 - 8 - 2*6 - 7*5 - 2*7*6/2 - 8*6*5/2)
            * (4^7 - 4*(1+7*3+(7*6/2)*(3*3)))
            = 1499 * 15,540 = 23,294,460

total : 4,324+33,120+4,140+224,848+3,473,184+4,047,644+6,180,020
        +6,461,620+31,433,400+58,627,800+23,294,460
        = 133,784,560
total count : (52 * 51 * 50 * 49 * 48 * 47 * 46) / (7 * 6 * 5 * 4 * 3 * 2 * 1)
              = 133,784,560
==================================================================


See for detailed explanation see
http://en.wikipedia.org/wiki/Poker_probability
http://people.math.sfu.ca/~alspach/comp20/
